Name,WeightClassKg,Division,Sex,Best3BenchKg,Bench4Kg,Best3DeadliftKg,Deadlift4Kg,TotalKg,Event,Equipment,Place
M. Buchanan,52,Masters 61-67,F,47.5,,,,47.5,B,Multi-ply,1
M. Barada,56,Teen 14-15,F,37.5,,,,37.5,B,Multi-ply,1
Gloria Camp,56,Masters 61-67,F,45,,,,45,B,Multi-ply,1
P. Fao,60,Teen 14-15,F,47.5,,,,47.5,B,Multi-ply,1
Terry Hall,60,Law/Fire Masters,F,47.5,,,,47.5,B,Multi-ply,1
M. Hobbs,60,Open,F,85,,,,85,B,Multi-ply,1
A. Barada,67.5,Teen 16-19,F,37.5,,,,37.5,B,Multi-ply,1
M. Boyd II,67.5,Juniors 20-25,F,80,,,,80,B,Multi-ply,1
R. Unson,67.5,Submasters 33-39,F,82.5,,,,82.5,B,Multi-ply,1
Betty Heriford,67.5,Masters 54-60,F,107.5,,,,107.5,B,Multi-ply,1
L. Lastufka,67.5,Masters 54-60,F,62.5,,,,62.5,B,Multi-ply,2
B. Anderson,67.5,Masters 61-67,F,77.5,,,,77.5,B,Multi-ply,1
Betty Heriford,67.5,Open,F,107.5,,,,107.5,B,Multi-ply,1
M. Rochat,67.5,Open,F,92.5,,,,92.5,B,Multi-ply,2
N. Harmon,75,Submasters 33-39,F,72.5,,,,72.5,B,Multi-ply,1
T. Jacobs,75,Masters 40-46,F,97.5,,,,97.5,B,Multi-ply,1
R. Rouska,75,Masters 40-46,F,55,,,,55,B,Multi-ply,2
Dee Jaye Baekiel,82.5,Masters 40-46,F,80,,,,80,B,Multi-ply,1
E. Harwood,82.5,Masters 40-46,F,72.5,,,,72.5,B,Multi-ply,2
M. Goett,82.5,Masters 54-60,F,120,,,,120,B,Multi-ply,1
K. Sua,90,Teen 14-15,F,87.5,,,,87.5,B,Multi-ply,1
Michelle Ichiyama,90,Submasters 33-39,F,120,,,,120,B,Multi-ply,1
S. Jackson,90,Masters 40-46,F,122.5,,,,122.5,B,Multi-ply,1
P. Michaels,90,Masters 47-53,F,92.5,95,,,92.5,B,Multi-ply,1
C. Erickson,90,Masters 47-53,F,82.5,,,,82.5,B,Multi-ply,2
Godfrey Holzinger,90,Masters 54-60,M,152.5,,,,152.5,B,Multi-ply,1
W. Pristell,90,Masters 61-67,F,75,,,,75,B,Multi-ply,1
J. Hill,90,Masters 61-67,F,42.5,,,,42.5,B,Multi-ply,2
T. Clendaniel,90+,Open,F,82.5,,,,82.5,B,Multi-ply,1
M. Jameson,75,Masters 54-60,M,137.5,,,,137.5,B,Multi-ply,1
F. Higgins,75,Masters 54-60,M,115,,,,115,B,Multi-ply,2
A. Jackson,75,Law/Fire Open,M,182.5,,,,182.5,B,Multi-ply,1
J. Dorsey,75,Class I,M,132.5,,,,132.5,B,Multi-ply,1
T. Furusho,82.5,Elite Open,M,,,,,,B,Multi-ply,DQ
Jody Cranston,82.5,Submasters 33-39,M,162.5,165,,,162.5,B,Raw,1
T. Furusho,82.5,Submasters 33-39,M,,,,,,B,Multi-ply,DQ
J. Noblit,82.5,Masters 40-46,M,185,,,,185,B,Multi-ply,1
Steve Hodge,82.5,Masters 40-46,M,172.5,,,,172.5,B,Multi-ply,2
Marxheimer,82.5,Masters 47-53,M,160,,,,160,B,Multi-ply,1
P. Plush,82.5,Masters 54-60,M,170,,,,170,B,Multi-ply,1
T. Camp,82.5,Masters 61-67,M,140,,,,140,B,Multi-ply,1
R. Goncalves,82.5,Masters 61-67,M,92.5,,,,92.5,B,Multi-ply,2
Keawe-aiko,82.5,Open,M,220,,,,220,B,Multi-ply,1
C. Hogan,82.5,Class I,M,115,,,,115,B,Multi-ply,1
T. Swisher,82.5,Class I,M,112.5,,,,112.5,B,Multi-ply,2
S. Hart,82.5,Juniors 20-25,M,112.5,,,,112.5,B,Multi-ply,1
C. Herr,82.5,Teen 12-13,M,72.5,,,,72.5,B,Multi-ply,1
J. Jochimsen,82.5,Teen 14-15,M,95,,,,95,B,Multi-ply,1
C. Hogan,82.5,Teen 16-19,M,115,,,,115,B,Multi-ply,1
C. Wu,90,Submasters 33-39,M,150,,,,150,B,Multi-ply,1
Leamon Woodley,90,Masters 47-53,M,172.5,,,,172.5,B,Multi-ply,1
Godfrey Holzinger,90,Masters 54-60,M,152.5,,,,152.5,B,Multi-ply,1
Daryle Hawkins,90,Masters 61-67,M,155,160,,,155,B,Multi-ply,1
R. Heriford,90,Masters 61-67,M,142.5,,,,142.5,B,Multi-ply,2
M. Inter,90,Open,M,147.5,,,,147.5,B,Multi-ply,1
I. Ackerman,90,Teen 12-13,M,40,42.5,,,40,B,Multi-ply,1
M. Weil,100,Submasters 33-39,M,227.5,,,,227.5,B,Multi-ply,1
Lance Fuhrman,100,Masters 40-46,M,227.5,232.5,,,227.5,B,Multi-ply,1
L. Watson,100,Masters 54-60,M,100,,,,100,B,Multi-ply,1
Michelle Ichiyama,90,Open,F,120,,,,120,B,Multi-ply,1
E. Tsimouris,56,Teen 16-19,M,92.5,,,,92.5,B,Multi-ply,1
T. Belen,60,Class I,M,130,,,,130,B,Multi-ply,1
C. Bird,60,Teen 12-13,M,35,,,,35,B,Multi-ply,1
T. Belen,60,Teen 16-19,M,130,,,,130,B,Multi-ply,1
Chris Balanga,67.5,Open,M,157.5,,,,157.5,B,Multi-ply,3
Chris Balanga,67.5,Submasters 33-39,M,157.5,,,,157.5,B,Multi-ply,1
D. Jamison,67.5,Masters 54-60,M,97.5,,,,97.5,B,Multi-ply,1
S. Cole,67.5,Class I,M,117.5,,,,117.5,B,Multi-ply,2
Willard Crossen III,67.5,Juniors 20-25,M,170,,,,170,B,Multi-ply,2
K. Dupont,67.5,Juniors 20-25,M,60,,,,60,B,Multi-ply,3
T. Smerski,67.5,Teen 12-13,M,40,40.5,,,40,B,Multi-ply,1
S. Cole,67.5,Teen 16-19,M,117.5,,,,117.5,B,Multi-ply,2
L. Benner,67.5,Teen 16-19,M,195,,,,195,B,Multi-ply,1
B. Martin,67.5,Teen 16-19,M,,,,,,B,Multi-ply,DQ
Joe Beteta,67.5,Masters 61-67,M,165,167.5,,,165,B,Multi-ply,1
Jerry Gladson,67.5,Masters 68-74,M,120,,,,120,B,Multi-ply,1
N. Lane,67.5,Law/Fire Open,M,242.5,,,,242.5,B,Multi-ply,1
N. Lane,67.5,Open,M,242.5,,,,242.5,B,Multi-ply,1
M. Weil,67.5,Open,M,227.5,,,,227.5,B,Multi-ply,2
J. Frazier,67.5,Class I,M,172.5,,,,172.5,B,Multi-ply,1
D. Barth,67.5,Juniors 20-25,M,197.5,,,,197.5,B,Multi-ply,1
J. Garbush,67.5,Teen 14-15,M,122.5,,,,122.5,B,Multi-ply,1
K. Engelke,110,Open,M,227.5,,,,227.5,B,Multi-ply,1
P. Arroyo,110,Open,M,202.5,,,,202.5,B,Multi-ply,2
B. Gilman,110,Submasters 33-39,M,150,,,,150,B,Multi-ply,1
J. Bowers,110,Masters 40-46,M,227.5,,,,227.5,B,Multi-ply,1
P. Arroyo,110,Masters 40-46,M,202.5,,,,202.5,B,Multi-ply,2
D. Seath,110,Masters 47-53,M,200,,,,200,B,Multi-ply,1
M. Magruder,110,Masters 54-60,M,177.5,,,,177.5,B,Multi-ply,1
K. Engelke,110,Class I,M,227.5,,,,227.5,B,Multi-ply,1
D. Groves,117.5,Open,M,227.5,,,,227.5,B,Multi-ply,1
P. Fitsschen,117.5,Submasters 33-39,M,207.5,,,,207.5,B,Multi-ply,1
T. Pennella,117.5,Masters 40-46,M,205,,,,205,B,Multi-ply,1
Willard Crossen Jr,117.5,Masters 47-53,M,235,,,,235,B,Multi-ply,1
N. Bewer,117.5,Masters 47-53,M,202.5,,,,202.5,B,Multi-ply,2
D. Harkins,117.5,Masters 54-60,M,105,,,,105,B,Multi-ply,1
J. Martin,117.5,Class I,M,192.5,,,,192.5,B,Multi-ply,1
M. Valdez,117.5,Class I,M,82.5,,,,82.5,B,Multi-ply,2
C. McConnell,125,Law/Fire Open,M,162.5,172.5,,,162.5,B,Multi-ply,1
R. West,125,Masters 40-46,M,,,,,,B,Multi-ply,DQ
C. Barada,125,Juniors 20-25,M,170,,,,170,B,Multi-ply,1
J. Barada,140,Masters 40-46,M,227.5,,,,227.5,B,Multi-ply,1
J. Mickelson,140,Masters 47-53,M,225,,,,225,B,Multi-ply,1
R. Smith,140,Masters 61-67,M,240,,,,240,B,Multi-ply,1
J. Noggles,140,Masters 68-74,M,,,,,,B,Multi-ply,DQ
F. Sua,140,Law/Fire Masters,M,227.5,,,,227.5,B,Multi-ply,1
J. Mickelson,140,Open,M,225,,,,225,B,Multi-ply,1
Bob Arnold,140+,Law/Fire Masters 40-47,M,272.5,,,,272.5,B,Multi-ply,1
N. Baptist,140+,Juniors 20-25,M,197.5,,,,197.5,B,Multi-ply,1
M. Vermes,44,Masters 47-53,F,,,105,,105,D,Multi-ply,1
J. Morris,52,Masters 47-53,F,,,125,,125,D,Multi-ply,1
P. Fao,60,Teen 14-15,F,,,97.5,100,97.5,D,Multi-ply,1
M. Boyd II,67.5,Juniors 20-25,F,,,150,,150,D,Multi-ply,1
S. Southwood,67.5,Masters 40-46,F,,,110,,110,D,Multi-ply,1
Betty Heriford,67.5,Masters 47-53,F,,,167.5,,167.5,D,Multi-ply,1
L. Lastufka,67.5,Masters 47-53,F,,,125,,125,D,Multi-ply,2
Betty Heriford,67.5,Open,F,,,167.5,,167.5,D,Multi-ply,1
M. Rachat,67.5,Open,F,,,162.5,,162.5,D,Multi-ply,2
L. Tan-Wu,67.5,Open,F,,,122.5,,122.5,D,Multi-ply,3
N. Harmon,75,Submasters 33-39,F,,,157.5,,157.5,D,Multi-ply,1
T. Jacobs,75,Masters 40-46,F,,,182.5,,182.5,D,Multi-ply,1
T. Jacobs,75,Open,F,,,182.5,,182.5,D,Multi-ply,1
E. Harwood,82.5,Masters 40-46,F,,,122.5,,122.5,D,Multi-ply,1
M. Goett,82.5,Masters 47-53,F,,,,,,D,Multi-ply,DQ
Dee Jaye Baekiel,82.5,Masters 61-67,F,,,140,,140,D,Multi-ply,1
P. Robey,82.5,Masters 61-67,F,,,125,,125,D,Multi-ply,2
S. Jackson,90,Masters 40-46,F,,,182.5,,182.5,D,Multi-ply,1
P. Michaels,90,Masters 47-53,F,,,152.5,155,152.5,D,Multi-ply,1
K. Sua,90,Teen 14-15,F,,,170,,170,D,Multi-ply,1
Margie Huston,90+,Masters 47-53,F,,,122.5,,122.5,D,Multi-ply,1
L. Watson,90+,Masters 54-60,F,,,165,,165,D,Multi-ply,1
C. Bird,60,Teen 12-13,M,,,92.5,,92.5,D,Multi-ply,1
T. Belen,60,Teen 16-19,M,,,170,,170,D,Multi-ply,1
T. Belen,60,Class I,M,,,170,,170,D,Multi-ply,1
T. Clendaniel,67.5,Teen 16-19,M,,,160,,160,D,Multi-ply,1
K. Dupont,67.5,Juniors 20-25,M,,,117.5,,117.5,D,Multi-ply,1
Chris Balanga,67.5,Submasters 33-39,M,,,70,,70,D,Multi-ply,1
K. Southwood,67.5,Masters 40-46,M,,,162.5,,162.5,D,Multi-ply,1
D. Jamison,67.5,Masters 54-60,M,,,167.5,,167.5,D,Multi-ply,1
Chris Balanga,67.5,Open,M,,,70,,70,D,Multi-ply,1
A. Jackson,75,Law/Fire Submasters,M,,,257.5,,257.5,D,Multi-ply,1
D. Higgins,75,Masters 54-60,M,,,215,,215,D,Multi-ply,1
M. Jameson,75,Masters 54-60,M,,,200,,200,D,Multi-ply,2
J. Benesi,75,Masters 54-60,M,,,160,,160,D,Multi-ply,3
D. Higgins,75,Open,M,,,215,,215,D,Multi-ply,1
J. Dorsey,75,Class I,M,,,227.5,,227.5,D,Multi-ply,1
C. Herr,82.5,Teen 12-13,M,,,107.5,,107.5,D,Multi-ply,1
J. Jochimsen,82.5,Teen 14-15,M,,,162.5,,162.5,D,Multi-ply,1
C. Hogan,82.5,Teen 16-19,M,,,225,,225,D,Multi-ply,1
S. Hart,82.5,Juniors 20-25,M,,,185,,185,D,Multi-ply,1
Jody Cranston,82.5,Submasters 33-39,M,,,250,,250,D,Raw,1
Steve Hodge,82.5,Masters 40-46,M,,,217.5,,217.5,D,Multi-ply,1
J. Rankin,82.5,Masters 54-60,M,,,195,,195,D,Multi-ply,1
R. Goncalves,82.5,Masters 61-67,M,,,142.5,,142.5,D,Multi-ply,1
C. Hogan,82.5,Class I,M,,,225,,225,D,Multi-ply,1
T. Swisher,82.5,Class I,M,,,172.5,,172.5,D,Multi-ply,2
S. Clendaniel,90,Teen 16-19,M,,,205,,205,D,Multi-ply,1
D. Barth,90,Juniors 20-25,M,,,275,,275,D,Multi-ply,1
J. Moore,90,Submasters 33-39,M,,,230,,230,D,Multi-ply,1
Leamon Woodley,90,Masters 47-53,M,,,295,,295,D,Multi-ply,1
Godfrey Holzinger,90,Masters 54-60,M,,,192.5,,192.5,D,Multi-ply,1
Leamon Woodley,90,Open,M,,,295,,295,D,Multi-ply,1
J. Garbush,100,Teen 14-15,M,,,212.5,,212.5,D,Multi-ply,1
D. Winslow,100,Teen 16-19,M,,,265,,265,D,Multi-ply,1
L. Benner,100,Masters 47-53,M,,,247.5,,247.5,D,Multi-ply,1
D. Benner,110,Masters 40-46,M,,,240,,240,D,Multi-ply,1
D. Seath,110,Masters 47-53,M,,,210,,210,D,Multi-ply,1
K. Engelke,110,Open,M,,,265,,265,D,Multi-ply,1
K. Engelke,110,Class I,M,,,265,,265,D,Multi-ply,1
T. Pennella,117.5,Masters 40-46,M,,,290,,290,D,Multi-ply,1
D. Harkins,117.5,Masters 54-60,M,,,165,,165,D,Multi-ply,1
R. West,125,Masters 40-46,M,,,225,,225,D,Multi-ply,1
V. Brumfield,125,Class I,M,,,287.5,295,287.5,D,Multi-ply,1
Andy Medak,140,Masters 47-53,M,,,295,,295,D,Multi-ply,1
J. Mickelson,140,Masters 47-53,M,,,275,,275,D,Multi-ply,2
Andy Medak,140,Open,M,,,295,,295,D,Multi-ply,1
J. Mickelson,140,Open,M,,,275,,275,D,Multi-ply,2
V. Eldridge,140+,Masters 40-46,M,,,297.5,,297.5,D,Multi-ply,1
